<svg width="19" height="18" viewBox="0 0 19 18" fill="none" xmlns="http://www.w3.org/2000/svg">
<rect x="0.144531" width="18" height="18" rx="0.5" fill="#156EE6"/>
<path d="M12.157 2.25C12.0466 2.25 11.957 2.33954 11.957 2.45V3.175C11.957 3.28546 12.0466 3.375 12.157 3.375H13.4913C13.6695 3.375 13.7587 3.59043 13.6327 3.71642L9.28595 8.0632C9.20785 8.14131 9.08121 8.14131 9.00311 8.0632L4.65633 3.71642C4.53033 3.59043 4.61957 3.375 4.79775 3.375H6.13203C6.24249 3.375 6.33203 3.28546 6.33203 3.175V2.45C6.33203 2.33954 6.24249 2.25 6.13203 2.25H2.59453C2.48407 2.25 2.39453 2.33954 2.39453 2.45V5.9875C2.39453 6.09796 2.48407 6.1875 2.59453 6.1875H3.31953C3.42999 6.1875 3.51953 6.09796 3.51953 5.9875V4.65322C3.51953 4.47504 3.73496 4.3858 3.86095 4.5118L8.52345 9.1743C8.56096 9.2118 8.58203 9.26267 8.58203 9.31572V15.55C8.58203 15.6605 8.67157 15.75 8.78203 15.75H9.50703C9.61749 15.75 9.70703 15.6605 9.70703 15.55V9.31572C9.70703 9.26267 9.7281 9.2118 9.76561 9.1743L14.4281 4.5118C14.5541 4.3858 14.7695 4.47504 14.7695 4.65322V5.9875C14.7695 6.09796 14.8591 6.1875 14.9695 6.1875H15.6945C15.805 6.1875 15.8945 6.09796 15.8945 5.9875V2.45C15.8945 2.33954 15.805 2.25 15.6945 2.25H12.157Z" fill="white"/>
</svg>
