<svg width="71" height="71" viewBox="0 0 71 71" fill="none" xmlns="http://www.w3.org/2000/svg">
<path d="M63.6898 4.84227H4.86797C4.33458 4.84342 3.82336 5.05582 3.44619 5.43299C3.06903 5.81016 2.85662 6.32137 2.85547 6.85477V53.0023C2.85547 54.1091 3.76109 55.0148 4.86797 55.0148H42.1911V55.006H63.6898C64.7967 55.006 65.7023 54.1026 65.7023 52.9935V6.85039C65.6995 6.31753 65.4865 5.80731 65.1097 5.43051C64.7329 5.05372 64.2227 4.84076 63.6898 4.83789V4.84227ZM62.8717 44.1341C62.8717 45.0354 62.1323 45.7748 61.2311 45.7748H7.09047C6.6557 45.7736 6.23907 45.6004 5.93165 45.293C5.62422 44.9855 5.451 44.5689 5.44984 44.1341V9.13414C5.44984 8.2307 6.18703 7.49352 7.09047 7.49352H61.2311C62.1323 7.49352 62.8717 8.2307 62.8717 9.13414V44.1341ZM45.2755 62.3735C45.2033 62.297 45.1398 62.2532 45.1267 62.2379L45.1048 62.2291L45.0873 62.2204C45.0873 62.2204 44.9867 62.1766 44.8248 62.0848C44.5908 61.9623 44.208 61.7698 43.8536 61.5663C43.5484 61.3981 43.2605 61.2002 42.9939 60.9757C42.9398 60.8561 42.8973 60.7316 42.867 60.6038C42.6855 59.9038 42.517 58.5257 42.3858 57.2351H25.9795C25.9292 57.7382 25.8745 58.2588 25.8133 58.7488C25.7515 59.2738 25.6698 59.7963 25.5683 60.3151C25.5259 60.5327 25.4652 60.7464 25.3867 60.9538L25.3714 60.9823C25.1658 61.1923 24.6277 61.5204 24.1617 61.7698C23.9277 61.9054 23.7023 62.0104 23.5427 62.0891L23.2802 62.2204L23.267 62.2313L23.2495 62.2401C23.2277 62.2576 23.1664 62.2838 23.0964 62.3713C23.0039 62.487 22.9523 62.6301 22.9498 62.7782C22.9564 62.7826 22.9433 62.8591 22.9389 62.9707C22.9389 63.0648 22.9542 63.2288 23.0877 63.3754C23.2189 63.5066 23.4005 63.5504 23.5623 63.5504H44.8161C44.9894 63.5539 45.1576 63.4913 45.2864 63.3754C45.3893 63.2654 45.4444 63.1191 45.4395 62.9685C45.4352 62.8591 45.4177 62.7804 45.422 62.776C45.4214 62.6287 45.3722 62.4857 45.282 62.3691L45.2755 62.3735Z" fill="#B6B6B6"/>
<rect x="9.08594" y="11.2227" width="24" height="9" rx="3" fill="#156EE6"/>
<rect x="35.4688" y="11.2227" width="24" height="9" rx="3" fill="#DCEFFE"/>
</svg>
