<svg width="71" height="71" viewBox="0 0 71 71" fill="none" xmlns="http://www.w3.org/2000/svg">
<path d="M63.6859 4.84227H4.86406C4.33067 4.84342 3.81945 5.05582 3.44229 5.43299C3.06512 5.81016 2.85272 6.32137 2.85156 6.85477V53.0023C2.85156 54.1091 3.75719 55.0148 4.86406 55.0148H42.1872V55.006H63.6859C64.7928 55.006 65.6984 54.1026 65.6984 52.9935V6.85039C65.6956 6.31753 65.4826 5.80731 65.1058 5.43051C64.729 5.05372 64.2188 4.84076 63.6859 4.83789V4.84227ZM62.8678 44.1341C62.8678 45.0354 62.1284 45.7748 61.2272 45.7748H7.08656C6.6518 45.7736 6.23517 45.6004 5.92774 45.293C5.62031 44.9855 5.44709 44.5689 5.44594 44.1341V9.13414C5.44594 8.2307 6.18313 7.49352 7.08656 7.49352H61.2272C62.1284 7.49352 62.8678 8.2307 62.8678 9.13414V44.1341ZM45.2716 62.3735C45.1994 62.297 45.1359 62.2532 45.1228 62.2379L45.1009 62.2291L45.0834 62.2204C45.0834 62.2204 44.9828 62.1766 44.8209 62.0848C44.5869 61.9623 44.2041 61.7698 43.8497 61.5663C43.5445 61.3981 43.2566 61.2002 42.99 60.9757C42.9359 60.8561 42.8934 60.7316 42.8631 60.6038C42.6816 59.9038 42.5131 58.5257 42.3819 57.2351H25.9756C25.9253 57.7382 25.8706 58.2588 25.8094 58.7488C25.7476 59.2738 25.6659 59.7963 25.5644 60.3151C25.522 60.5327 25.4613 60.7464 25.3828 60.9538L25.3675 60.9823C25.1619 61.1923 24.6237 61.5204 24.1578 61.7698C23.9237 61.9054 23.6984 62.0104 23.5387 62.0891L23.2762 62.2204L23.2631 62.2313L23.2456 62.2401C23.2237 62.2576 23.1625 62.2838 23.0925 62.3713C23 62.487 22.9484 62.6301 22.9459 62.7782C22.9525 62.7826 22.9394 62.8591 22.935 62.9707C22.935 63.0648 22.9503 63.2288 23.0837 63.3754C23.215 63.5066 23.3966 63.5504 23.5584 63.5504H44.8122C44.9855 63.5539 45.1536 63.4913 45.2825 63.3754C45.3854 63.2654 45.4405 63.1191 45.4356 62.9685C45.4313 62.8591 45.4137 62.7804 45.4181 62.776C45.4175 62.6287 45.3683 62.4857 45.2781 62.3691L45.2716 62.3735Z" fill="#B6B6B6"/>
<rect x="7.27344" y="11.2227" width="12" height="9" rx="3" fill="#156EE6"/>
<rect x="21.2734" y="11.2227" width="12" height="9" rx="3" fill="#DCEFFE"/>
<rect x="35.2734" y="11.2227" width="12" height="9" rx="3" fill="#DCEFFE"/>
<rect x="49.2734" y="11.2227" width="12" height="9" rx="3" fill="#DCEFFE"/>
</svg>
