<svg width="15" height="15" viewBox="0 0 15 15" fill="none" xmlns="http://www.w3.org/2000/svg">
<path d="M7.90234 0.5C4.03672 0.5 0.902344 3.63438 0.902344 7.5C0.902344 11.3656 4.03672 14.5 7.90234 14.5C11.768 14.5 14.9023 11.3656 14.9023 7.5C14.9023 3.63438 11.768 0.5 7.90234 0.5ZM10.1539 7.60781L6.74141 10.0906C6.7227 10.1041 6.70065 10.1121 6.67767 10.1138C6.6547 10.1155 6.6317 10.1109 6.61119 10.1004C6.59068 10.0899 6.57346 10.074 6.56143 10.0543C6.54939 10.0347 6.54301 10.0121 6.54297 9.98906V5.02656C6.54289 5.00348 6.54921 4.98082 6.56122 4.96111C6.57323 4.9414 6.59047 4.9254 6.61102 4.91488C6.63157 4.90436 6.65463 4.89974 6.67764 4.90153C6.70066 4.90331 6.72273 4.91144 6.74141 4.925L10.1539 7.40625C10.17 7.41765 10.1832 7.43275 10.1923 7.45029C10.2013 7.46783 10.2061 7.48729 10.2061 7.50703C10.2061 7.52678 10.2013 7.54624 10.1923 7.56377C10.1832 7.58131 10.17 7.59641 10.1539 7.60781Z" fill="#B6B6B6"/>
</svg>
